POSEIDON tutorial
…
Each directory contains all the data produced by each simulation, the run$.csv file contain a table of all the selected data columns to print:

## # A tibble: 5 x 3
##   `Total Effort` `Average Cash-Flow` `Species 0 Landings`
##            <dbl>               <dbl>                <dbl>
## 1        356233.              71605.              737979.
## 2        218308.              59469.              624133.
## 3        173664.              53773.              569650.
## 4        152381.              51758.              550701.
## 5        165219.              49201.              524677.

Probably the most important file is the _batch.csv file which contains all the selected columns for all runs in a tidy format:

## # A tibble: 75 x 4
##      run  year variable            value
##    <int> <int> <chr>               <dbl>
##  1     0     0 Total Effort      356233.
##  2     0     1 Total Effort      218308.
##  3     0     2 Total Effort      173664.
##  4     0     3 Total Effort      152381.
##  5     0     4 Total Effort      165219.
##  6     0     0 Average Cash-Flow  71605.
##  7     0     1 Average Cash-Flow  59469.
##  8     0     2 Average Cash-Flow  53773.
##  9     0     3 Average Cash-Flow  51758.
## 10     0     4 Average Cash-Flow  49201.
## # ... with 65 more rows
…
